…
Usually, the second step of my data inquiry is having an overview of the
*identifiers* of data points. In our case, the identifiers are country
names, country IDs, and years. Using the `distinct()` function can
effectively identify the distinct levels of *identifiers*

    d |> select(country_name, country_id, year) |> distinct()

    ## # A tibble: 6,789 × 3
    ##    country_name country_id  year
    ##    <chr>             <dbl> <dbl>
    ##  1 Mexico                3  1984
    ##  2 Mexico                3  1985
    ##  3 Mexico                3  1986
    ##  4 Mexico                3  1987
    ##  5 Mexico                3  1988
    ##  6 Mexico                3  1989
    ##  7 Mexico                3  1990
    ##  8 Mexico                3  1991
    ##  9 Mexico                3  1992
    ## 10 Mexico                3  1993
    ## # … with 6,779 more rows

    # Which countries are in this dataset
    d |> select(country_name) |> distinct()

    ## # A tibble: 181 × 1
    ##    country_name 
    ##    <chr>        
    ##  1 Mexico       
    ##  2 Suriname     
    ##  3 Sweden       
    ##  4 Switzerland  
    ##  5 Ghana        
    ##  6 South Africa 
    ##  7 Japan        
    ##  8 Burma/Myanmar
    ##  9 Russia       
    ## 10 Albania      
    ## # … with 171 more rows

    d |> select(year) |> distinct()

    ## # A tibble: 39 × 1
    ##     year
    ##    <dbl>
    ##  1  1984
    ##  2  1985
    ##  3  1986
    ##  4  1987
    ##  5  1988
    ##  6  1989
    ##  7  1990
    ##  8  1991
    ##  9  1992
    ## 10  1993
    ## # … with 29 more rows

Select both the country identifiers, GDP, and GDP per capita.

    d_gdp <- d |> 
      select(country_name, country_id, year, e_gdp, e_gdppc)

    d_gdp

    ## # A tibble: 6,789 × 5
    ##    country_name country_id  year   e_gdp e_gdppc
    ##    <chr>             <dbl> <dbl>   <dbl>   <dbl>
    ##  1 Mexico                3  1984  93563.    11.7
    ##  2 Mexico                3  1985  94259.    11.5
    ##  3 Mexico                3  1986  92750.    11.1
    ##  4 Mexico                3  1987  93220.    10.9
    ##  5 Mexico                3  1988  94687.    10.8
    ##  6 Mexico                3  1989  98145.    11.0
    ##  7 Mexico                3  1990 103254.    11.4
    ##  8 Mexico                3  1991 107374.    11.6
    ##  9 Mexico                3  1992 111533.    11.9
    ## 10 Mexico                3  1993 114611.    12.0
    ## # … with 6,779 more rows

### 3. Rename Columns to Make Names Informative

    d_gdp <- d_gdp |>
      rename("GDP" = "e_gdp", "GDP_per_capita" = "e_gdppc",
             "Country" = "country_name", "ID" = "country_id",
             "Year" = "year")

    d_gdp

    ## # A tibble: 6,789 × 5
    ##    Country    ID  Year     GDP GDP_per_capita
    ##    <chr>   <dbl> <dbl>   <dbl>          <dbl>
    ##  1 Mexico      3  1984  93563.           11.7
    ##  2 Mexico      3  1985  94259.           11.5
    ##  3 Mexico      3  1986  92750.           11.1
    ##  4 Mexico      3  1987  93220.           10.9
    ##  5 Mexico      3  1988  94687.           10.8
    ##  6 Mexico      3  1989  98145.           11.0
    ##  7 Mexico      3  1990 103254.           11.4
    ##  8 Mexico      3  1991 107374.           11.6
    ##  9 Mexico      3  1992 111533.           11.9
    ## 10 Mexico      3  1993 114611.           12.0
    ## # … with 6,779 more rows
…
Or you may define the sample size as a poroportion of the original data
size:

    set.seed(52)
    d_gdp |> slice_sample(prop = 0.1)

    ## # A tibble: 678 × 5
    ##    Country        ID  Year      GDP GDP_per_capita
    ##    <chr>       <dbl> <dbl>    <dbl>          <dbl>
    ##  1 Cape Verde     70  1988     76.5           2.18
    ##  2 Oman          187  1991   2955.           14.7 
    ##  3 Romania       190  2010  30202.           14.0 
    ##  4 South Korea    42  2001 124701.           24.6 
    ##  5 Mozambique     57  2012   3589.            1.41
    ##  6 Bulgaria      152  1992   8739.            9.53
    ##  7 Morocco        90  2001  15549.            5.03
    ##  8 Vietnam        34  1990  10537.            1.47
    ##  9 Canada         66  1985  83713.           30.4 
    ## 10 Serbia        198  1987  17430.            7.64
    ## # … with 668 more rows
…
### 5. Subset Rows of the Data Using `filter`

For example, we may take the observations whose `Year` variable ranges
from 2000 to 2005.

    # Want: 2000-2005 data
    d_gdp |> filter(Year >= 2000 & Year <= 2005)

    ## # A tibble: 1,062 × 5
    ##    Country     ID  Year     GDP GDP_per_capita
    ##    <chr>    <dbl> <dbl>   <dbl>          <dbl>
    ##  1 Mexico       3  2000 145206.          13.7 
    ##  2 Mexico       3  2001 146993.          13.6 
    ##  3 Mexico       3  2002 148549.          13.6 
    ##  4 Mexico       3  2003 151035.          13.7 
    ##  5 Mexico       3  2004 156578.          14.1 
    ##  6 Mexico       3  2005 162094.          14.3 
    ##  7 Suriname     4  2000    383.           7.67
    ##  8 Suriname     4  2001    402.           7.93
    ##  9 Suriname     4  2002    423.           8.25
    ## 10 Suriname     4  2003    451.           8.67
    ## # … with 1,052 more rows

We may subset observations whose `Country` variable, a `character`
variable, equals to the text `"China"`.

    d_gdp |> filter(Country == "China")

    ## # A tibble: 39 × 5
    ##    Country    ID  Year     GDP GDP_per_capita
    ##    <chr>   <dbl> <dbl>   <dbl>          <dbl>
    ##  1 China     110  1984 243976.           2.21
    ##  2 China     110  1985 265805.           2.36
    ##  3 China     110  1986 285707.           2.50
    ##  4 China     110  1987 308227.           2.65
    ##  5 China     110  1988 322596.           2.73
    ##  6 China     110  1989 327739.           2.74
    ##  7 China     110  1990 315683.           2.63
    ##  8 China     110  1991 329836.           2.71
    ##  9 China     110  1992 359817.           2.90
    ## 10 China     110  1993 393449.           3.15
    ## # … with 29 more rows
…
### 6. Sort the Data based on Values of Rows using `arrange`

Now we will try to sort the dataset `d_gdp` by the value of GDP per
capita using the `arrange`. We may have country-year with small values
of `GDP_per_capita` appearing first and those with larger values of
`GDP_per_capita` coming after them.

    # Want: sort the row by GDP per capita
    d_gdp |> arrange(GDP_per_capita)

    ## # A tibble: 6,789 × 5
    ##    Country                             ID  Year    GDP GDP_per_capita
    ##    <chr>                            <dbl> <dbl>  <dbl>          <dbl>
    ##  1 Liberia                             86  1995   62.3          0.286
    ##  2 Liberia                             86  1994   65.5          0.307
    ##  3 Liberia                             86  1996   70.6          0.309
    ##  4 Liberia                             86  1993   81.5          0.383
    ##  5 Liberia                             86  1997  107.           0.429
    ##  6 Liberia                             86  1992  113.           0.53 
    ##  7 Democratic Republic of the Congo   111  2002 2966.           0.538
    ##  8 Democratic Republic of the Congo   111  2001 2890.           0.54 
    ##  9 Liberia                             86  1998  147.           0.543
    ## 10 Democratic Republic of the Congo   111  2003 3141.           0.552
    ## # … with 6,779 more rows

Want the countries-years with larger values of `GDP_per_capita` appear
first? Simply reverse the value using `-GDP_per_capita`. Alternatively,
you may replace `desc(GDP_per_capita)`.

    d_gdp |> arrange(-GDP_per_capita)

    ## # A tibble: 6,789 × 5
    ##    Country                 ID  Year    GDP GDP_per_capita
    ##    <chr>                <dbl> <dbl>  <dbl>          <dbl>
    ##  1 United Arab Emirates   207  1984 16817.          115. 
    ##  2 United Arab Emirates   207  1985 15946.          103. 
    ##  3 Qatar                   94  2012 23055.          101. 
    ##  4 Qatar                   94  2011 21273.          100. 
    ##  5 Qatar                   94  2013 24074.           98.9
    ##  6 United Arab Emirates   207  1991 20567.           96.5
    ##  7 United Arab Emirates   207  1992 21506.           95.7
    ##  8 Qatar                   94  2014 24194.           95.3
    ##  9 Qatar                   94  2010 18107.           94.4
    ## 10 United Arab Emirates   207  2000 31871.           93.3
    ## # … with 6,779 more rows
…
### Pipe `|>`

#### What is a pipe?

> R now provides a simple native forward pipe syntax `|>`. The simple
> form of the forward pipe <u>inserts the left-hand side as the first
> argument in the right-hand side call</u>.

Let’s elaborate this definition

    # What we have used
    d_gdp |> filter(Country == "China")

    ## # A tibble: 39 × 5
    ##    Country    ID  Year     GDP GDP_per_capita
    ##    <chr>   <dbl> <dbl>   <dbl>          <dbl>
    ##  1 China     110  1984 243976.           2.21
    ##  2 China     110  1985 265805.           2.36
    ##  3 China     110  1986 285707.           2.50
    ##  4 China     110  1987 308227.           2.65
    ##  5 China     110  1988 322596.           2.73
    ##  6 China     110  1989 327739.           2.74
    ##  7 China     110  1990 315683.           2.63
    ##  8 China     110  1991 329836.           2.71
    ##  9 China     110  1992 359817.           2.90
    ## 10 China     110  1993 393449.           3.15
    ## # … with 29 more rows

    # is equivalent to...
    filter(d_gdp, Country == "China")

    ## # A tibble: 39 × 5
    ##    Country    ID  Year     GDP GDP_per_capita
    ##    <chr>   <dbl> <dbl>   <dbl>          <dbl>
    ##  1 China     110  1984 243976.           2.21
    ##  2 China     110  1985 265805.           2.36
    ##  3 China     110  1986 285707.           2.50
    ##  4 China     110  1987 308227.           2.65
    ##  5 China     110  1988 322596.           2.73
    ##  6 China     110  1989 327739.           2.74
    ##  7 China     110  1990 315683.           2.63
    ##  8 China     110  1991 329836.           2.71
    ##  9 China     110  1992 359817.           2.90
    ## 10 China     110  1993 393449.           3.15
    ## # … with 29 more rows

    # ... is equivalent to
    d_gdp |> filter(.data = _, Country == "China") 

    ## # A tibble: 39 × 5
    ##    Country    ID  Year     GDP GDP_per_capita
    ##    <chr>   <dbl> <dbl>   <dbl>          <dbl>
    ##  1 China     110  1984 243976.           2.21
    ##  2 China     110  1985 265805.           2.36
    ##  3 China     110  1986 285707.           2.50
    ##  4 China     110  1987 308227.           2.65
    ##  5 China     110  1988 322596.           2.73
    ##  6 China     110  1989 327739.           2.74
    ##  7 China     110  1990 315683.           2.63
    ##  8 China     110  1991 329836.           2.71
    ##  9 China     110  1992 359817.           2.90
    ## 10 China     110  1993 393449.           3.15
    ## # … with 29 more rows
…
