…
-   \[Healy\] Healy, Kieran. Data visualization: a practical
    introduction. Princeton University Press, 2018. E-book:
    [socviz.co](https://socviz.co/)

## Load Data

``` r
library(tidyverse)
theme_set(theme_bw()) # Set my default theme for the whole document

d <- readRDS("Lec_08/data/wealth_and_health.rds")
d |> print(n = 3)
```

    ## # A tibble: 23,593 × 10
    ##   country_text_id  year region life_expectancy gdppc population infant_mortality
    ##   <chr>           <dbl>  <dbl>           <dbl> <dbl>      <dbl>            <dbl>
    ## 1 MEX              1800     17            26.9  1.35      5100               487
    ## 2 MEX              1801     17            26.9  1.34      5174.              487
    ## 3 MEX              1802     17            26.9  1.32      5249.              487
    ## # ℹ 23,590 more rows
    ## # ℹ 3 more variables: democracy_binary <dbl>, democracy_lexical <dbl>,
    ## #   democracy_polity5 <dbl>
…
