…
    -   Search engine (Google, Bing)

    -   Large Language Model (e.g., *ChatGPT*)

    -   Human (e.g., me)

## Read Error Messages

-   You have not loaded your data.

``` r
d
```

    ## # A tibble: 6,789 × 211
    ##    country_name country_text_id country_id  year historical_date project
    ##    <chr>        <chr>                <dbl> <dbl> <date>            <dbl>
    ##  1 Mexico       MEX                      3  1984 1984-12-31            0
    ##  2 Mexico       MEX                      3  1985 1985-12-31            0
    ##  3 Mexico       MEX                      3  1986 1986-12-31            0
    ##  4 Mexico       MEX                      3  1987 1987-12-31            0
    ##  5 Mexico       MEX                      3  1988 1988-12-31            0
    ##  6 Mexico       MEX                      3  1989 1989-12-31            0
    ##  7 Mexico       MEX                      3  1990 1990-12-31            0
    ##  8 Mexico       MEX                      3  1991 1991-12-31            0
    ##  9 Mexico       MEX                      3  1992 1992-12-31            0
    ## 10 Mexico       MEX                      3  1993 1993-12-31            0
    ## # ℹ 6,779 more rows
    ## # ℹ 205 more variables: historical <dbl>, histname <chr>, codingstart <dbl>,
    ## #   codingend <dbl>, codingstart_contemp <dbl>, codingend_contemp <dbl>,
    ## #   codingstart_hist <dbl>, codingend_hist <dbl>, gapstart1 <dbl>,
    ## #   gapstart2 <dbl>, gapstart3 <dbl>, gapend1 <dbl>, gapend2 <dbl>,
    ## #   gapend3 <dbl>, gap_index <dbl>, COWcode <dbl>, e_v2x_api_3C <dbl>,
    ## #   e_v2x_api_4C <dbl>, e_v2x_api_5C <dbl>, e_v2x_civlib_3C <dbl>, …
…
