…
<img src="images/Screenshot%202023-10-12%20at%2010.27.46.png"
width="370" />

## Multiple Population Data Sources

Consistency? Check years that are available in both datasets.

``` r
d_pop_overlap <- d |> select(country_text_id, year, starts_with("population_")) |> 
  drop_na()
print(d_pop_overlap, n = 3)
```

    ## # A tibble: 5,818 × 4
    ##   country_text_id  year population_ClioInfra population_WorldBank
    ##   <chr>           <dbl>                <dbl>                <dbl>
    ## 1 MEX              1960               38578.             37771861
    ## 2 MEX              1961               39998.             38966049
    ## 3 MEX              1962               41418.             40195318
    ## # ℹ 5,815 more rows
…
    ## 
    ## FALSE  TRUE  <NA> 
    ##  6003 17590     0

``` r
check_data_available |> print(n = 3)
```

    ## # A tibble: 23,593 × 10
    ##   country_text_id  year region life_expectancy gdppc population democracy_binary
    ##   <chr>           <dbl>  <dbl>           <dbl> <dbl>      <dbl>            <dbl>
    ## 1 MEX              1800     17            26.9  1.35      5100                NA
    ## 2 MEX              1801     17            26.9  1.34      5174.               NA
    ## 3 MEX              1802     17            26.9  1.32      5249.               NA
    ## # ℹ 23,590 more rows
    ## # ℹ 3 more variables: democracy_lexical <dbl>, democracy_polity5 <dbl>,
    ## #   Available <lgl>

## Check Data Availability (con’d)

``` r
check_data_available_wide <- check_data_available |>
  select(country_text_id, year, Available) |>
  pivot_wider(names_from = "country_text_id", values_from = "Available", 
              names_prefix = "c_") |>
  arrange(year)

check_data_available_wide |> print(n = 3)
```

    ## # A tibble: 184 × 203
    ##    year c_MEX c_SWE c_CHE c_JPN c_MMR c_RUS c_EGY c_YEM c_COL c_POL c_BRA c_USA
    ##   <dbl> <lgl> <lgl> <lgl> <lgl> <lgl> <lgl> <lgl> <lgl> <lgl> <lgl> <lgl> <lgl>
    ## 1  1800 TRUE  TRUE  TRUE  TRUE  FALSE FALSE TRUE  FALSE TRUE  NA    TRUE  FALSE
    ## 2  1801 TRUE  TRUE  TRUE  TRUE  FALSE FALSE TRUE  FALSE TRUE  NA    TRUE  FALSE
    ## 3  1802 TRUE  TRUE  TRUE  TRUE  FALSE FALSE TRUE  FALSE TRUE  NA    TRUE  FALSE
    ## # ℹ 181 more rows
    ## # ℹ 190 more variables: c_PRT <lgl>, c_BOL <lgl>, c_HTI <lgl>, c_PER <lgl>,
    ## #   c_VDR <lgl>, c_AFG <lgl>, c_ARG <lgl>, c_ETH <lgl>, c_IND <lgl>,
    ## #   c_KOR <lgl>, c_THA <lgl>, c_VEN <lgl>, c_IDN <lgl>, c_NPL <lgl>,
    ## #   c_AUS <lgl>, c_CHL <lgl>, c_FRA <lgl>, c_DEU <lgl>, c_GTM <lgl>,
    ## #   c_IRN <lgl>, c_LBR <lgl>, c_MAR <lgl>, c_NLD <lgl>, c_ESP <lgl>,
    ## #   c_TUN <lgl>, c_TUR <lgl>, c_GBR <lgl>, c_URY <lgl>, c_CHN <lgl>, …
…
check_data_available_by_column |> print(n = 3)
```

    ## # A tibble: 184 × 4
    ##    year life_expectancy gdppc population
    ##   <dbl>           <int> <int>      <int>
    ## 1  1800              16    31         25
    ## 2  1801              16    31         25
    ## 3  1802              17    32         26
    ## # ℹ 181 more rows
…
