…
## Example: The V-Dem Data

``` r
library(tidyverse)
d <- read_csv("_DataPublic_/vdem/1984_2022/vdem_1984_2022_external.csv")
d |> print(n = 3)
```

    ## # A tibble: 6,789 × 211
    ##   country_name country_text_id country_id  year historical_date project
    ##   <chr>        <chr>                <dbl> <dbl> <date>            <dbl>
    ## 1 Mexico       MEX                      3  1984 1984-12-31            0
    ## 2 Mexico       MEX                      3  1985 1985-12-31            0
    ## 3 Mexico       MEX                      3  1986 1986-12-31            0
    ## # ℹ 6,786 more rows
    ## # ℹ 205 more variables: historical <dbl>, histname <chr>, codingstart <dbl>,
    ## #   codingend <dbl>, codingstart_contemp <dbl>, codingend_contemp <dbl>,
    ## #   codingstart_hist <dbl>, codingend_hist <dbl>, gapstart1 <dbl>,
    ## #   gapstart2 <dbl>, gapstart3 <dbl>, gapend1 <dbl>, gapend2 <dbl>,
    ## #   gapend3 <dbl>, gap_index <dbl>, COWcode <dbl>, e_v2x_api_3C <dbl>,
    ## #   e_v2x_api_4C <dbl>, e_v2x_api_5C <dbl>, e_v2x_civlib_3C <dbl>, …

## Example: The V-Dem Data

Focus on the economic indicators: GDP and GDP per capita.

``` r
d_gdp <- d |> 
  select(country_text_id, year, e_gdp, e_gdppc) |>
  rename("gdp" = "e_gdp", "gdppc" = "e_gdppc")

d_gdp |> print(n = 3)
```

    ## # A tibble: 6,789 × 4
    ##   country_text_id  year    gdp gdppc
    ##   <chr>           <dbl>  <dbl> <dbl>
    ## 1 MEX              1984 93563.  11.7
    ## 2 MEX              1985 94259.  11.5
    ## 3 MEX              1986 92750.  11.1
    ## # ℹ 6,786 more rows

# Reshape a Table

## Wide to Long: `pivot_longer`

``` r
d_gdp_long <- d_gdp |>
  pivot_longer(cols = c("gdp", "gdppc"), 
               names_to = "variable", values_to = "value")

d_gdp_long |> print(n = 4)
```

    ## # A tibble: 13,578 × 4
    ##   country_text_id  year variable   value
    ##   <chr>           <dbl> <chr>      <dbl>
    ## 1 MEX              1984 gdp      93563. 
    ## 2 MEX              1984 gdppc       11.7
    ## 3 MEX              1985 gdp      94259. 
    ## 4 MEX              1985 gdppc       11.5
    ## # ℹ 13,574 more rows

## Long to Wide: `pivot_wider`

Task: Reverse the above `pivot_long` operation.

``` r
d_gdp_wide_1 <- d_gdp_long |>
  pivot_wider(names_from = "variable", values_from = "value")

d_gdp_wide_1 |> print(n = 4)
```

    ## # A tibble: 6,789 × 4
    ##   country_text_id  year    gdp gdppc
    ##   <chr>           <dbl>  <dbl> <dbl>
    ## 1 MEX              1984 93563.  11.7
    ## 2 MEX              1985 94259.  11.5
    ## 3 MEX              1986 92750.  11.1
    ## 4 MEX              1987 93220.  10.9
    ## # ℹ 6,785 more rows

## Long to Wide: `pivot_wider`

Task: Make `year` the column variable.

``` r
d_gdp_wide_2 <- d_gdp_long |>
  pivot_wider(names_from = "year", values_from = "value")

d_gdp_wide_2 |> print(n = 2)
```

    ## # A tibble: 362 × 41
    ##   country_text_id variable  `1984`  `1985`  `1986`  `1987`  `1988` `1989` `1990`
    ##   <chr>           <chr>      <dbl>   <dbl>   <dbl>   <dbl>   <dbl>  <dbl>  <dbl>
    ## 1 MEX             gdp      93563.  94259.  92750.  93220.  94687.  9.81e4 1.03e5
    ## 2 MEX             gdppc       11.7    11.5    11.1    10.9    10.8 1.10e1 1.14e1
    ## # ℹ 360 more rows
    ## # ℹ 32 more variables: `1991` <dbl>, `1992` <dbl>, `1993` <dbl>, `1994` <dbl>,
    ## #   `1995` <dbl>, `1996` <dbl>, `1997` <dbl>, `1998` <dbl>, `1999` <dbl>,
    ## #   `2000` <dbl>, `2001` <dbl>, `2002` <dbl>, `2003` <dbl>, `2004` <dbl>,
    ## #   `2005` <dbl>, `2006` <dbl>, `2007` <dbl>, `2008` <dbl>, `2009` <dbl>,
    ## #   `2010` <dbl>, `2011` <dbl>, `2012` <dbl>, `2013` <dbl>, `2014` <dbl>,
    ## #   `2015` <dbl>, `2016` <dbl>, `2017` <dbl>, `2018` <dbl>, `2019` <dbl>, …

## Long to Wide: `pivot_wider`

Task: Make `country_text_id` the column variable.

``` r
d_gdp_wide_3 <- d_gdp_long |>
  pivot_wider(names_from = "country_text_id", values_from = "value")

d_gdp_wide_3 |> print(n = 2)
```

    ## # A tibble: 78 × 183
    ##    year variable     MEX    SUR    SWE    CHE    GHA    ZAF    JPN    MMR    RUS
    ##   <dbl> <chr>      <dbl>  <dbl>  <dbl>  <dbl>  <dbl>  <dbl>  <dbl>  <dbl>  <dbl>
    ## 1  1984 gdp      93563.  286.   2.35e4 2.31e4 3.02e3 3.15e4 2.87e5 4.18e3 3.49e5
    ## 2  1984 gdppc       11.7   7.43 2.66e1 3.32e1 2.20e0 9.03e0 2.26e1 1.10e0 1.65e1
    ## # ℹ 76 more rows
    ## # ℹ 172 more variables: ALB <dbl>, EGY <dbl>, YEM <dbl>, COL <dbl>, POL <dbl>,
    ## #   BRA <dbl>, USA <dbl>, PRT <dbl>, SLV <dbl>, YMD <dbl>, BGD <dbl>,
    ## #   BOL <dbl>, HTI <dbl>, HND <dbl>, MLI <dbl>, PAK <dbl>, PER <dbl>,
    ## #   SEN <dbl>, SSD <dbl>, SDN <dbl>, VNM <dbl>, AFG <dbl>, ARG <dbl>,
    ## #   ETH <dbl>, IND <dbl>, KEN <dbl>, PRK <dbl>, KOR <dbl>, XKX <dbl>,
    ## #   LBN <dbl>, NGA <dbl>, PHL <dbl>, TZA <dbl>, TWN <dbl>, THA <dbl>, …
…
``` r
d_gdp_1945 <- 
  read_csv("_DataPublic_/vdem/1945_1983/vdem_1945_1983_external.csv") |>
  select(country_text_id, year, e_gdp, e_gdppc) |>
  rename("gdp" = "e_gdp", "gdppc" = "e_gdppc")

d_gdp_1906 <- 
  read_csv("_DataPublic_/vdem/1906_1944/vdem_1906_1944_external.csv") |>
  select(country_text_id, year, e_gdp, e_gdppc) |>
  rename("gdp" = "e_gdp", "gdppc" = "e_gdppc")

d_gdp_1945 |> print(n = 2) 
```

    ## # A tibble: 6,082 × 4
    ##   country_text_id  year   gdp gdppc
    ##   <chr>           <dbl> <dbl> <dbl>
    ## 1 MEX              1945 7827.  3.08
    ## 2 MEX              1946 8331.  3.17
    ## # ℹ 6,080 more rows
…
``` r
d_edu <- d |>
  select(e_peaveduc, e_peedgini) |>
  rename("edu_15" = "e_peaveduc", "edu_gini" = "e_peedgini")

d_fh <- d |>
  select(starts_with("e_fh")) |>
  rename("fh_CivilLiberty" = "e_fh_cl", "fh_PoliticalRight" = "e_fh_pr",
         "fh_RuleOfLaw" = "e_fh_rol", "fh_Status" = "e_fh_status")

d_fh |> print(n = 2)
```

    ## # A tibble: 6,789 × 4
    ##   fh_CivilLiberty fh_PoliticalRight fh_RuleOfLaw fh_Status
    ##             <dbl>             <dbl>        <dbl>     <dbl>
    ## 1               4                 3           NA         2
    ## 2               4                 4           NA         2
    ## # ℹ 6,787 more rows

## `bind_rows`

``` r
d_gdp_1945_2022 <- bind_rows(d_gdp, d_gdp_1945)
d_gdp_1945_2022 |> print(n = 3)
```

    ## # A tibble: 12,871 × 4
    ##   country_text_id  year    gdp gdppc
    ##   <chr>           <dbl>  <dbl> <dbl>
    ## 1 MEX              1984 93563.  11.7
    ## 2 MEX              1985 94259.  11.5
    ## 3 MEX              1986 92750.  11.1
    ## # ℹ 12,868 more rows
…
``` r
d_gdp_1945_2022_ue_rows <- bind_rows(
 d_gdp |> select(-gdppc),
 d_gdp_1945 |> select(-gdp)
)
```

## `bind_rows`

``` r
d_gdp_1906_2022 <- bind_rows(d_gdp, d_gdp_1945, d_gdp_1906) # can take multiple data frames
d_gdp_1906_2022 |> print(n = 3)
```

    ## # A tibble: 18,559 × 4
    ##   country_text_id  year    gdp gdppc
    ##   <chr>           <dbl>  <dbl> <dbl>
    ## 1 MEX              1984 93563.  11.7
    ## 2 MEX              1985 94259.  11.5
    ## 3 MEX              1986 92750.  11.1
    ## # ℹ 18,556 more rows
…
## `bind_cols`

``` r
d_gdp_edu_fh <- bind_cols(d_gdp, d_edu, d_fh) # can take multiple data frames
d_gdp_edu_fh |> print(n = 3)
```

    ## # A tibble: 6,789 × 10
    ##   country_text_id  year    gdp gdppc edu_15 edu_gini fh_CivilLiberty
    ##   <chr>           <dbl>  <dbl> <dbl>  <dbl>    <dbl>           <dbl>
    ## 1 MEX              1984 93563.  11.7   6.08     32.7               4
    ## 2 MEX              1985 94259.  11.5   6.22     32.4               4
    ## 3 MEX              1986 92750.  11.1   6.36     31.9               4
    ## # ℹ 6,786 more rows
    ## # ℹ 3 more variables: fh_PoliticalRight <dbl>, fh_RuleOfLaw <dbl>,
    ## #   fh_Status <dbl>
…
-   *GDP per capita* data from **1984 to 2010**

## Task 1: Setup

``` r
d_gdp_2000_2022 <- d |> filter(year %in% 2000:2022) |>
  select(country_text_id, year, e_gdp) |> rename("gdp" = "e_gdp")

d_gdppc_1984_2010 <- d |> filter(year %in% 1984:2010) |>
  select(country_text_id, year, e_gdppc) |> rename("gdppc" = "e_gdppc")

d_gdp_2000_2022 |> print(n = 2)
```

    ## # A tibble: 4,099 × 3
    ##   country_text_id  year     gdp
    ##   <chr>           <dbl>   <dbl>
    ## 1 MEX              2000 145206.
    ## 2 MEX              2001 146993.
    ## # ℹ 4,097 more rows

``` r
d_gdppc_1984_2010 |> print(n = 2)
```

    ## # A tibble: 4,641 × 3
    ##   country_text_id  year gdppc
    ##   <chr>           <dbl> <dbl>
    ## 1 MEX              1984  11.7
    ## 2 MEX              1985  11.5
    ## # ℹ 4,639 more rows

## `left_join`

``` r
d_lj <- d_gdp_2000_2022 |> 
  left_join(d_gdppc_1984_2010, by = c("country_text_id", "year"))

d_lj |> print(n = 2)
```

    ## # A tibble: 4,099 × 4
    ##   country_text_id  year     gdp gdppc
    ##   <chr>           <dbl>   <dbl> <dbl>
    ## 1 MEX              2000 145206.  13.7
    ## 2 MEX              2001 146993.  13.6
    ## # ℹ 4,097 more rows
…
    ##  [1] 2000 2001 2002 2003 2004 2005 2006 2007 2008 2009 2010 2011 2012 2013 2014
    ## [16] 2015 2016 2017 2018 2019 2020 2021 2022

## `right_join`

``` r
d_rj <- d_gdp_2000_2022 |> 
  right_join(d_gdppc_1984_2010, by = c("country_text_id", "year"))

d_rj |> print(n = 2)
```

    ## # A tibble: 4,641 × 4
    ##   country_text_id  year     gdp gdppc
    ##   <chr>           <dbl>   <dbl> <dbl>
    ## 1 MEX              2000 145206.  13.7
    ## 2 MEX              2001 146993.  13.6
    ## # ℹ 4,639 more rows
…
    ##  [1] 1984 1985 1986 1987 1988 1989 1990 1991 1992 1993 1994 1995 1996 1997 1998
    ## [16] 1999 2000 2001 2002 2003 2004 2005 2006 2007 2008 2009 2010

## `inner_join`

``` r
d_ij <- d_gdp_2000_2022 |> 
  inner_join(d_gdppc_1984_2010, by = c("country_text_id", "year"))

d_ij |> print(n = 2)
```

    ## # A tibble: 1,951 × 4
    ##   country_text_id  year     gdp gdppc
    ##   <chr>           <dbl>   <dbl> <dbl>
    ## 1 MEX              2000 145206.  13.7
    ## 2 MEX              2001 146993.  13.6
    ## # ℹ 1,949 more rows
…
    ##  [1] 2000 2001 2002 2003 2004 2005 2006 2007 2008 2009 2010

## `full_join`

``` r
d_fj <- d_gdp_2000_2022 |> 
  full_join(d_gdppc_1984_2010, by = c("country_text_id", "year"))

d_fj |> print(n = 2)
```

    ## # A tibble: 6,789 × 4
    ##   country_text_id  year     gdp gdppc
    ##   <chr>           <dbl>   <dbl> <dbl>
    ## 1 MEX              2000 145206.  13.7
    ## 2 MEX              2001 146993.  13.6
    ## # ℹ 6,787 more rows
…
    ##  [1] 1984 1985 1986 1987 1988 1989 1990 1991 1992 1993 1994 1995 1996 1997 1998
    ## [16] 1999 2000 2001 2002 2003 2004 2005 2006 2007 2008 2009 2010 2011 2012 2013
    ## [31] 2014 2015 2016 2017 2018 2019 2020 2021 2022

## `semi_join`

``` r
d_sj <- d_gdp_2000_2022 |> 
  semi_join(d_gdppc_1984_2010, by = c("country_text_id", "year"))

d_sj |> print(n = 2)
```

    ## # A tibble: 1,951 × 3
    ##   country_text_id  year     gdp
    ##   <chr>           <dbl>   <dbl>
    ## 1 MEX              2000 145206.
    ## 2 MEX              2001 146993.
    ## # ℹ 1,949 more rows
…
    ##  [1] 2000 2001 2002 2003 2004 2005 2006 2007 2008 2009 2010

## `anti_join`

``` r
d_aj <- d_gdp_2000_2022 |> 
  anti_join(d_gdppc_1984_2010, by = c("country_text_id", "year"))

d_aj |> print(n = 2)
```

    ## # A tibble: 2,148 × 3
    ##   country_text_id  year     gdp
    ##   <chr>           <dbl>   <dbl>
    ## 1 MEX              2011 185824.
    ## 2 MEX              2012 192272.
    ## # ℹ 2,146 more rows
…
## Many-to-One Join: Repeat!

Calculate each country’s average 1984-2010 *GDP per capita* and merge it
with our annual GDP data from 2000 to 2022.

``` r
d_gdppc_1984_2010_avg <- d_gdppc_1984_2010 |> group_by(country_text_id) |>
  summarise(gdppc_1984to2010 = mean(gdppc, na.rm = TRUE))
d_gdppc_1984_2010_avg |> print(n = 2)
```

    ## # A tibble: 180 × 2
    ##   country_text_id gdppc_1984to2010
    ##   <chr>                      <dbl>
    ## 1 AFG                         1.22
    ## 2 AGO                         3.35
    ## # ℹ 178 more rows

``` r
d_lj_ManyToOne <- d_gdp_2000_2022 |> 
  left_join(d_gdppc_1984_2010_avg, by = "country_text_id")
d_lj_ManyToOne |> print(n = 2)
```

    ## # A tibble: 4,099 × 4
    ##   country_text_id  year     gdp gdppc_1984to2010
    ##   <chr>           <dbl>   <dbl>            <dbl>
    ## 1 MEX              2000 145206.             12.8
    ## 2 MEX              2001 146993.             12.8
    ## # ℹ 4,097 more rows
…
``` r
# The d_gdp_2000_2022 data are from V-Dem
d_gdp_2000_2022_t <- d_gdp_2000_2022 |> mutate(source_vdem = 1)

# *Pretend* that the d_gdppc_1984_2010 data are from the World Bank
d_gdppc_1984_2010_t <- d_gdppc_1984_2010 |> mutate(source_wb = 1)

d_fj_habit <- d_gdp_2000_2022_t |> 
  full_join(d_gdppc_1984_2010_t, by = c("country_text_id", "year"))

d_fj_habit |> print(n = 3)
```

    ## # A tibble: 6,789 × 6
    ##   country_text_id  year     gdp source_vdem gdppc source_wb
    ##   <chr>           <dbl>   <dbl>       <dbl> <dbl>     <dbl>
    ## 1 MEX              2000 145206.           1  13.7         1
    ## 2 MEX              2001 146993.           1  13.6         1
    ## 3 MEX              2002 148549.           1  13.6         1
    ## # ℹ 6,786 more rows
…
d_gdppc_1984_2010_rn <- d_gdppc_1984_2010 |> 
  rename("wb_gdppc" = "gdppc")
  # rename_at(vars(-c("country_text_id", "year")), ~str_c("wb_", .))

d_fj_habit_2 <- d_gdp_2000_2022_rn |>
  full_join(d_gdppc_1984_2010_rn, by = c("country_text_id", "year"))

d_fj_habit_2 |> print(n = 3)
```

    ## # A tibble: 6,789 × 4
    ##   country_text_id  year vdem_gdp wb_gdppc
    ##   <chr>           <dbl>    <dbl>    <dbl>
    ## 1 MEX              2000  145206.     13.7
    ## 2 MEX              2001  146993.     13.6
    ## 3 MEX              2002  148549.     13.6
    ## # ℹ 6,786 more rows
…
