…
# Housekeeping

## Load Data

``` r
library(tidyverse)
theme_set(theme_bw()) # Set my default theme for the whole document

d <- readRDS("Lec_07/data/wealth_and_health.rds")
d |> print(n = 3)
```

    ## # A tibble: 23,593 × 9
    ##   country_text_id  year region life_expectancy gdppc population democracy_binary
    ##   <chr>           <dbl>  <dbl>           <dbl> <dbl>      <dbl>            <dbl>
    ## 1 MEX              1800     17            26.9  1.35      5100                NA
    ## 2 MEX              1801     17            26.9  1.34      5174.               NA
    ## 3 MEX              1802     17            26.9  1.32      5249.               NA
    ## # ℹ 23,590 more rows
    ## # ℹ 2 more variables: democracy_lexical <dbl>, democracy_polity5 <dbl>
…
