…
## Check Basic Information of the Dataset

    dim(d)

    ## [1] 6789  211

## Select Variables (Columns) of Interest

    d_s <- d |>
      select(country_name, country_id, year, e_fh_cl, e_gdp, e_gdppc)

    d_s

    ## # A tibble: 6,789 × 6
    ##    country_name country_id  year e_fh_cl   e_gdp e_gdppc
    ##    <chr>             <dbl> <dbl>   <dbl>   <dbl>   <dbl>
    ##  1 Mexico                3  1984       4  93563.    11.7
    ##  2 Mexico                3  1985       4  94259.    11.5
    ##  3 Mexico                3  1986       4  92750.    11.1
    ##  4 Mexico                3  1987       4  93220.    10.9
    ##  5 Mexico                3  1988       4  94687.    10.8
    ##  6 Mexico                3  1989       3  98145.    11.0
    ##  7 Mexico                3  1990       4 103254.    11.4
    ##  8 Mexico                3  1991       4 107374.    11.6
    ##  9 Mexico                3  1992       3 111533.    11.9
    ## 10 Mexico                3  1993       4 114611.    12.0
    ## # ℹ 6,779 more rows
…
